{
    "log_level" : "debug",
    "paths" : 
	{
        "use_case" : "use-cases",
        "log" : "log",
		"config" : "config"
    },
	"config_files" : 
	{
		"metric_calendar":
		{
			"file_name": "metric-time-availability.csv"
		
		},
		"source_status" : "log/log.sources.csv"
	}
}